[
   {
      "form": 0,
      "name": "",
      "type": "text",
      "id": "txt2",
      "elementPos": 2,
      "checked": false,
      "namePos": 0,
      "value": "first,last,age,Addresses/street,Addresses/city,Addresses/state,Addresses/zip,EmailAddresses/email"
   },
   {
      "form": 0,
      "name": "",
      "type": "hidden",
      "id": "txt1",
      "elementPos": 3,
      "checked": false,
      "namePos": 0,
      "value": "FirstName,LastName,Age,Addresses/StreetAddress,Addresses/City,Addresses/State,Addresses/ZipCode,EmailAddresses/EmailAddress\nJames,Webster,23,Pabzah Boulevard,Pepzelopo,KY,30046,vufore@resefmer.om\nMaggie,Graham,27,Dekfi Turnpike,Ofebmug,ID,08063,wokecjul@va.im\nSophia,Silva,51,Wiboz View,Veupipif,NH,59516,mo@lozuj.mc\nDuane,Curtis,61,Lipdac Grove,Ilkoskan,OR,47114,maslafi@ogopu.at\nJackson,Harper,23,Hepoc River,Gulamiso,VT,68108,ajpik@cu.ch\nRuth,Wallace,53,Wigadu Ridge,Sabniko,MA,86588,tabuk@tato.cr\nClayton,Newman,41,Codku Path,Noegfo,ND,85510,patriwwu@sowuniv.vg\nJoseph,Sanders,23,Gapbag Pass,Wovlowi,NM,93472,we@ta.cv\nTom,Caldwell,48,Ijuoh View,Vusladwo,MA,16313,jiheb@vu.af\nSusan,Rhodes,26,Zacit Pass,Gaidwa,DE,05748,akesot@mub.mu\nEleanor,Chavez,60,Roneg Center,Kecuoje,OK,96623,mibpew@povfe.bw\nGavin,Warner,58,Dofeg Plaza,Toarzub,NH,68983,teza@lizerga.mh\nEddie,Johnston,36,Lefdov Mill,Obisadi,CT,41382,obirasa@jiv.cz\nJeffrey,Carroll,49,Zuak Manor,Sovwufra,NM,23696,fin@awgab.nz\nIsaiah,Anderson,20,Woate Point,Newilok,GA,36629,ise@bubi.gs\nShawn,McKinney,37,Puere Turnpike,Daagalo,CO,96791,lonuzsok@leldi.mu\nLeo,Haynes,29,Umaro Mill,Ivaulso,VT,62246,ar@viszados.aq\nEllen,Dixon,44,Egte Court,Uhinose,MD,15275,futcelog@ij.nr\nJesse,Neal,24,Avulih Glen,Ajnizduw,CA,63730,wejuf@cajfiru.dk\nDean,Casey,57,Bevmut Road,Esiakowoc,AK,28013,to@icuwoose.pr\nCharles,Weber,41,Iwcal Pass,Nuhove,IN,63229,gifzonazu@imu.cd\nLeona,Ellis,24,Ureca Grove,Faruvihe,WA,81235,zuvozsuw@mel.ba\nWilliam,Quinn,37,Ecifac River,Fanoscut,SC,91300,babob@budes.com\nClara,White,19,Humuz Junction,Darufkaw,SC,59692,iz@kapajfu.rs\nHenry,Casey,23,Nofzet Trail,Favfozu,MT,68639,pot@ruenovak.gm\nMyrtie,Vaughn,20,Jabuw Park,Ekudibuk,MS,16172,cecic@amka.lv\nMargaret,Alvarado,41,Nivu Manor,Ujehabe,WV,60142,duldi@recsebu.im\nRobert,Cannon,65,Hapu Terrace,Vajwafad,OH,25529,wehi@ro.dz\nMarguerite,Malone,28,Guwhif Parkway,Edboka,UT,69076,gefpawlem@fuhtek.va\nDavid,Chandler,61,Vadtu Key,Enemicob,TX,07582,kecipce@turocari.re\nRicardo,Curtis,38,Wobil Court,Umikebu,RI,13725,wuwliran@za.wf\nJayden,Peterson,49,Dazad Point,Ehebivur,WI,46465,cav@veasi.uz\nAntonio,McCarthy,41,Mobe Lane,Filgebpob,PA,90131,udtu@ujdi.ps\nBarbara,Cole,63,Mafdah Lane,Godfokbi,MI,96022,birogi@renelec.gn\nDanny,Fernandez,20,Liom Highway,Pibzewgo,MN,84595,has@bi.np\nLillian,Craig,58,Mais Road,Medmijzup,NM,38286,ko@ucapodwar.jo\nLandon,Holloway,50,Rejmos Square,Pevinvu,VT,36765,jalovo@lez.com\nSteve,Lloyd,60,Hurlo Square,Ezfunda,WV,70189,ikfa@ri.kw\nLillian,Atkins,53,Fegtec Glen,Hajashin,WA,94728,canupeosa@rinreg.tk\nJohn,Rowe,52,Rebid Terrace,Fefizaja,OR,29800,mucgihzun@eszadpi.sj\nAaron,Wilkins,31,Gusid Center,Siidibiw,IL,17463,wepebe@budzubgud.tl\nJohn,Ward,58,Enar Terrace,Tusiut,KY,91173,zuzfohro@cimatoze.ms\nChad,Kennedy,28,Avuabi Avenue,Hacuzto,ND,23038,ralmazde@ci.sg\nJim,Harvey,20,Ritur Path,Bemekhor,MA,13743,decod@ussolap.vu\nJared,Allison,56,Mazivu Loop,Jozupken,WY,40227,morboob@foh.al\nEmily,Hampton,37,Nuliko Manor,Ifuupuumo,ME,32394,hudehu@lufoju.kz\nHester,Stanley,21,Nitce Point,Vabajoz,WY,75379,jarnac@lude.ee\nJerry,Garrett,32,Dafmop View,Inawuvnu,MO,14884,tegcim@buswavhe.gov\nAlvin,Wise,39,Vanpif Circle,Popokpu,FL,10570,ahadajki@ma.by\nBilly,Davidson,22,Jacoz Highway,Ukuetujaf,AZ,84414,vudtubro@na.mx\nMabel,Griffith,18,Siva Highway,Poloew,IL,74991,mor@dobzogela.mo\nMargaret,Murphy,35,Zamwu Highway,Fuhfaboha,MS,70274,obe@igbuowi.ar\nGilbert,George,23,Patha Point,Nipodijo,TX,95117,ruc@ke.kh\nChristian,Jones,39,Ofacuk Square,Ezlusco,MO,19104,wo@zino.fo\nNorman,Roberts,24,Pihsul Manor,Duggevor,SD,53516,vusovut@noha.eu\nElijah,Maldonado,36,Nuwa Turnpike,Opojouvo,ID,58490,wogakcu@cevaruve.pa\nOlive,Pena,26,Nipaj Highway,Upcudat,DC,45973,orielu@apavomo.gt\nWillie,Stokes,54,Wajozo Street,Pufuze,ND,46417,edupofa@nihfa.bh\nWillie,Moss,49,Imazom Manor,Haggojkul,UT,36028,nup@ubbooj.gw\nRoy,Marsh,50,Metbi Avenue,Paldufas,NJ,59100,ojezo@tobrag.su\nStanley,Patton,37,Gefha Center,Aftakki,VA,85314,hajkut@gewnitew.gd\nLily,McKinney,32,Darsar Parkway,Aszioci,AL,86485,vutpu@vikih.ni\nAlejandro,Strickland,34,Cuwuz Extension,Wiggerrob,RI,94042,pe@rom.bj\nMittie,McCoy,58,Teftob Grove,Ventazbal,NY,16879,retuzo@le.us\nAlexander,Nelson,51,Dukuj River,Imupekuv,MI,91491,jijbega@olafab.so\nLuis,Reed,49,Votez Circle,Asbommu,MS,16493,devfagu@pecawwul.hm\nOscar,McCoy,34,Nivkoz Street,Lajetew,HI,20128,celod@fakazce.th\nRonnie,Reid,41,Dirse Terrace,Giaztod,KY,07412,kijehse@ikduvo.im\nGregory,Palmer,30,Omke Road,Galegud,MT,87135,gafpehel@nirko.mx\nNorman,McLaughlin,41,Ritde Heights,Asosual,DE,45054,valen@sod.bd\nAlejandro,Allison,48,Wopof Street,Suufiuco,IA,07967,ga@casoc.il\nPhoebe,Christensen,24,Desu Road,Huegmem,AK,26042,kog@juteoc.fj\nJustin,Roberts,29,Gokpu Turnpike,Hissido,GA,19607,ra@acfebav.sd\nHunter,Watts,65,Hesa Glen,Dathikfa,PA,60233,veuje@gadje.fj\nHarvey,Love,41,Lojah Center,Geweve,MO,58150,norarzes@jasze.aw\nKatie,Boone,28,Gamwu Key,Fuwicu,AL,05421,sad@nimvepet.pk\nRosie,Henderson,24,Ilvec Pass,Argofa,IA,05959,ti@aci.th\nWesley,Fields,60,Zabdiw Drive,Vasogbop,CO,72674,jizgis@zil.ws\nHarry,Hines,36,Davniz Ridge,Tezerti,NM,81703,guvizcew@cu.ss\nChristine,Garcia,31,Webu Parkway,Metezuw,MD,67538,ziv@tegat.cu\nDavid,Collier,37,Azeota Way,Rumuvkud,MS,39371,imozut@ki.gr\nRhoda,Massey,38,Gajek Glen,Miihici,OH,37318,evoarci@fufap.lk\nRoxie,Dawson,32,Ibmu Square,Pasfivab,TX,85972,ewzun@sazi.sy\nFannie,Larson,34,Fowug Manor,Wonvablo,MT,55206,husli@nasheduza.si\nFanny,Wong,37,Feaci Center,Powcief,IA,44792,rov@ike.re\nEvan,Murray,42,Zike Ridge,Zapidor,IL,33450,aju@satic.gi\nGeorgie,Conner,28,Zure Pike,Zagebe,UT,60521,rov@icted.se\nJeff,Bowman,42,Mirni Path,Eveahbuj,MN,04509,uva@pi.iq\nBeatrice,Lewis,37,Vatki Road,Ofatevga,MA,41139,tekucohi@wu.ug\nWinnie,Holt,64,Sukdu Pike,Tavwuvej,ME,36862,ta@topje.ro\nCarlos,Leonard,61,Jeuc Terrace,Demzove,VA,06223,le@uc.lr\nElmer,Lyons,55,Zartal Trail,Tirevla,VA,11258,ajehirasa@ez.dj\nHenrietta,Wheeler,63,Mesu Plaza,Vaosona,NE,36033,te@bejca.gh\nRachel,Barber,52,Poup Lane,Gevadje,NY,86350,sapiw@logo.ly\nCallie,Diaz,29,Ukeeh Square,Huklakip,KS,64177,ise@sur.cy\nFanny,Webb,48,Potnum Way,Teberku,HI,32494,vejge@fu.kn\nBelle,Gill,32,Amuaz Glen,Uskufap,IL,63434,unuac@evgatog.cw\nJeremiah,Gibbs,40,Gideha View,Tutnetapo,VT,47968,lewu@agifago.ec\nJeff,Thornton,29,Sasav Center,Canitel,AL,14909,ravocub@milido.ne\nRosalie,Santiago,38,Zolak Path,Celkobe,LA,84013,cegru@se.lk\n"
   },
   {
      "form": 0,
      "name": "",
      "type": "text",
      "id": "fieldnames",
      "elementPos": 4,
      "checked": false,
      "namePos": 0,
      "value": "FirstName,LastName,Age,Addresses/StreetAddress,Addresses/City,Addresses/State,Addresses/ZipCode,EmailAddresses/EmailAddress"
   },
   {
      "form": 0,
      "name": "",
      "type": "select-one",
      "id": "selOutFormat",
      "elementPos": 5,
      "namePos": 0,
      "value": "JSON"
   },
   {
      "form": 0,
      "name": "",
      "type": "number",
      "id": "txtRows",
      "elementPos": 7,
      "checked": false,
      "namePos": 0,
      "value": "100"
   },
   {
      "form": 0,
      "name": "",
      "type": "checkbox",
      "id": "chkDefaultHeader",
      "elementPos": 8,
      "checked": true,
      "namePos": 0,
      "value": "Y"
   },
   {
      "form": 0,
      "name": "",
      "type": "checkbox",
      "id": "chkMongoDbMode",
      "elementPos": 9,
      "checked": false,
      "namePos": 0,
      "value": "Y"
   }
]