[
 {
	"FirstName":"James",
	"LastName":"Webster",
	"Age":23,
	"Addresses":[
		{
		 "StreetAddress":"Pabzah Boulevard",
		 "City":"Pepzelopo",
		 "State":"KY",
		 "ZipCode":30046
		},
		{
		 "StreetAddress":"Pabzah Boulevard apto 99",
		 "City":"Pepzelopo City",
		 "State":"KY",
		 "ZipCode":30046
		}
	],
	"EmailAddresses":[
		{
		 "EmailAddress":"vufore@resefmer.om"
		},
		{
		 "EmailAddress":"vufore99@resefmer.if"
		}
	]
 },
 {
	"FirstName":"Maggie",
	"LastName":"Graham",
	"Age":27,
	"Addresses":[
		{
		 "StreetAddress":"Dekfi Turnpike",
		 "City":"Ofebmug",
		 "State":"ID",
		 "ZipCode":8063
		}
	],
	"EmailAddresses":[
		{
		 "EmailAddress":"wokecjul@va.im"
		}
	]
 },
 {"FirstName":"Sophia","LastName":"Silva","Age":51,
 "Addresses":[{"StreetAddress":"Wiboz View","City":"Veupipif","State":"NH","ZipCode":59516}],
 "EmailAddresses":[{"EmailAddress":"mo@lozuj.mc"}]},
 {"FirstName":"Duane","LastName":"Curtis","Age":61,
 "Addresses":[{"StreetAddress":"Lipdac Grove","City":"Ilkoskan","State":"OR","ZipCode":47114}],
 "EmailAddresses":[{"EmailAddress":"maslafi@ogopu.at"}]},
 {"FirstName":"Jackson","LastName":"Harper","Age":23,
 "Addresses":[{"StreetAddress":"Hepoc River","City":"Gulamiso","State":"VT","ZipCode":68108}],
 "EmailAddresses":[{"EmailAddress":"ajpik@cu.ch"}]},
 {"FirstName":"Ruth","LastName":"Wallace","Age":53,
 "Addresses":[{"StreetAddress":"Wigadu Ridge","City":"Sabniko","State":"MA","ZipCode":86588}],
 "EmailAddresses":[{"EmailAddress":"tabuk@tato.cr"}]},
 {"FirstName":"Clayton","LastName":"Newman","Age":41,
 "Addresses":[{"StreetAddress":"Codku Path","City":"Noegfo","State":"ND","ZipCode":85510}],
 "EmailAddresses":[{"EmailAddress":"patriwwu@sowuniv.vg"}]},
 {"FirstName":"Joseph","LastName":"Sanders","Age":23,
 "Addresses":[{"StreetAddress":"Gapbag Pass","City":"Wovlowi","State":"NM","ZipCode":93472}],
 "EmailAddresses":[{"EmailAddress":"we@ta.cv"}]},
 {"FirstName":"Tom","LastName":"Caldwell","Age":48,
 "Addresses":[{"StreetAddress":"Ijuoh View","City":"Vusladwo","State":"MA","ZipCode":16313}],
 "EmailAddresses":[{"EmailAddress":"jiheb@vu.af"}]},
 {"FirstName":"Susan","LastName":"Rhodes","Age":26,
 "Addresses":[{"StreetAddress":"Zacit Pass","City":"Gaidwa","State":"DE","ZipCode":5748}],
 "EmailAddresses":[{"EmailAddress":"akesot@mub.mu"}]},
 {"FirstName":"Eleanor","LastName":"Chavez","Age":60,
 "Addresses":[{"StreetAddress":"Roneg Center","City":"Kecuoje","State":"OK","ZipCode":96623}],
 "EmailAddresses":[{"EmailAddress":"mibpew@povfe.bw"}]},
 {"FirstName":"Gavin","LastName":"Warner","Age":58,
 "Addresses":[{"StreetAddress":"Dofeg Plaza","City":"Toarzub","State":"NH","ZipCode":68983}],
 "EmailAddresses":[{"EmailAddress":"teza@lizerga.mh"}]},
 {"FirstName":"Eddie","LastName":"Johnston","Age":36,
 "Addresses":[{"StreetAddress":"Lefdov Mill","City":"Obisadi","State":"CT","ZipCode":41382}],
 "EmailAddresses":[{"EmailAddress":"obirasa@jiv.cz"}]},
 {"FirstName":"Jeffrey","LastName":"Carroll","Age":49,
 "Addresses":[{"StreetAddress":"Zuak Manor","City":"Sovwufra","State":"NM","ZipCode":23696}],
 "EmailAddresses":[{"EmailAddress":"fin@awgab.nz"}]},
 {"FirstName":"Isaiah","LastName":"Anderson","Age":20,
 "Addresses":[{"StreetAddress":"Woate Point","City":"Newilok","State":"GA","ZipCode":36629}],
 "EmailAddresses":[{"EmailAddress":"ise@bubi.gs"}]},
 {"FirstName":"Shawn","LastName":"McKinney","Age":37,
 "Addresses":[{"StreetAddress":"Puere Turnpike","City":"Daagalo","State":"CO","ZipCode":96791}],
 "EmailAddresses":[{"EmailAddress":"lonuzsok@leldi.mu"}]},
 {"FirstName":"Leo","LastName":"Haynes","Age":29,
 "Addresses":[{"StreetAddress":"Umaro Mill","City":"Ivaulso","State":"VT","ZipCode":62246}],
 "EmailAddresses":[{"EmailAddress":"ar@viszados.aq"}]},
 {"FirstName":"Ellen","LastName":"Dixon","Age":44,
 "Addresses":[{"StreetAddress":"Egte Court","City":"Uhinose","State":"MD","ZipCode":15275}],
 "EmailAddresses":[{"EmailAddress":"futcelog@ij.nr"}]},
 {"FirstName":"Jesse","LastName":"Neal","Age":24,
 "Addresses":[{"StreetAddress":"Avulih Glen","City":"Ajnizduw","State":"CA","ZipCode":63730}],
 "EmailAddresses":[{"EmailAddress":"wejuf@cajfiru.dk"}]},
 {"FirstName":"Dean","LastName":"Casey","Age":57,
 "Addresses":[{"StreetAddress":"Bevmut Road","City":"Esiakowoc","State":"AK","ZipCode":28013}]
 ,"EmailAddresses":[{"EmailAddress":"to@icuwoose.pr"}]},
 {"FirstName":"Charles","LastName":"Weber","Age":41,
 "Addresses":[{"StreetAddress":"Iwcal Pass","City":"Nuhove","State":"IN","ZipCode":63229}]
 ,"EmailAddresses":[{"EmailAddress":"gifzonazu@imu.cd"}]},
 {"FirstName":"Leona","LastName":"Ellis","Age":24,
 "Addresses":[{"StreetAddress":"Ureca Grove","City":"Faruvihe","State":"WA","ZipCode":81235}],
 "EmailAddresses":[{"EmailAddress":"zuvozsuw@mel.ba"}]},
 {"FirstName":"William","LastName":"Quinn","Age":37,
 "Addresses":[{"StreetAddress":"Ecifac River","City":"Fanoscut","State":"SC","ZipCode":91300}],
 "EmailAddresses":[{"EmailAddress":"babob@budes.com"}]},
 {"FirstName":"Clara","LastName":"White","Age":19,
 "Addresses":[{"StreetAddress":"Humuz Junction","City":"Darufkaw","State":"SC","ZipCode":59692}]
 ,"EmailAddresses":[{"EmailAddress":"iz@kapajfu.rs"}]},
 {"FirstName":"Henry","LastName":"Casey","Age":23,
 "Addresses":[{"StreetAddress":"Nofzet Trail","City":"Favfozu","State":"MT","ZipCode":68639}],
 "EmailAddresses":[{"EmailAddress":"pot@ruenovak.gm"}]},
 {"FirstName":"Myrtie","LastName":"Vaughn","Age":20,
 "Addresses":[{"StreetAddress":"Jabuw Park","City":"Ekudibuk","State":"MS","ZipCode":16172}],
 "EmailAddresses":[{"EmailAddress":"cecic@amka.lv"}]},
 {"FirstName":"Margaret","LastName":"Alvarado","Age":41,
 "Addresses":[{"StreetAddress":"Nivu Manor","City":"Ujehabe","State":"WV","ZipCode":60142}],
 "EmailAddresses":[{"EmailAddress":"duldi@recsebu.im"}]},
 {"FirstName":"Robert","LastName":"Cannon","Age":65,
 "Addresses":[{"StreetAddress":"Hapu Terrace","City":"Vajwafad","State":"OH","ZipCode":25529}],
 "EmailAddresses":[{"EmailAddress":"wehi@ro.dz"}]},
 {"FirstName":"Marguerite","LastName":"Malone","Age":28,
 "Addresses":[{"StreetAddress":"Guwhif Parkway","City":"Edboka","State":"UT","ZipCode":69076}],
 "EmailAddresses":[{"EmailAddress":"gefpawlem@fuhtek.va"}]},
 {"FirstName":"David","LastName":"Chandler","Age":61,
 "Addresses":[{"StreetAddress":"Vadtu Key","City":"Enemicob","State":"TX","ZipCode":7582}],
 "EmailAddresses":[{"EmailAddress":"kecipce@turocari.re"}]},
 {"FirstName":"Ricardo","LastName":"Curtis","Age":38,
 "Addresses":[{"StreetAddress":"Wobil Court","City":"Umikebu","State":"RI","ZipCode":13725}],
 "EmailAddresses":[{"EmailAddress":"wuwliran@za.wf"}]},
 {"FirstName":"Jayden","LastName":"Peterson","Age":49,
 "Addresses":[{"StreetAddress":"Dazad Point","City":"Ehebivur","State":"WI","ZipCode":46465}]
 ,"EmailAddresses":[{"EmailAddress":"cav@veasi.uz"}]},
 {"FirstName":"Antonio","LastName":"McCarthy","Age":41,
 "Addresses":[{"StreetAddress":"Mobe Lane","City":"Filgebpob","State":"PA","ZipCode":90131}],
 "EmailAddresses":[{"EmailAddress":"udtu@ujdi.ps"}]},
 {"FirstName":"Barbara","LastName":"Cole","Age":63,
 "Addresses":[{"StreetAddress":"Mafdah Lane","City":"Godfokbi","State":"MI","ZipCode":96022}],
 "EmailAddresses":[{"EmailAddress":"birogi@renelec.gn"}]},
 {"FirstName":"Danny","LastName":"Fernandez","Age":20,
 "Addresses":[{"StreetAddress":"Liom Highway","City":"Pibzewgo","State":"MN","ZipCode":84595}],
 "EmailAddresses":[{"EmailAddress":"has@bi.np"}]},
 {"FirstName":"Lillian","LastName":"Craig","Age":58,
 "Addresses":[{"StreetAddress":"Mais Road","City":"Medmijzup","State":"NM","ZipCode":38286}],
 "EmailAddresses":[{"EmailAddress":"ko@ucapodwar.jo"}]},
 {"FirstName":"Landon","LastName":"Holloway","Age":50,
 "Addresses":[{"StreetAddress":"Rejmos Square","City":"Pevinvu","State":"VT","ZipCode":36765}],
 "EmailAddresses":[{"EmailAddress":"jalovo@lez.com"}]},
 {"FirstName":"Steve","LastName":"Lloyd","Age":60,
 "Addresses":[{"StreetAddress":"Hurlo Square","City":"Ezfunda","State":"WV","ZipCode":70189}],
 "EmailAddresses":[{"EmailAddress":"ikfa@ri.kw"}]},
 {"FirstName":"Lillian","LastName":"Atkins","Age":53,
 "Addresses":[{"StreetAddress":"Fegtec Glen","City":"Hajashin","State":"WA","ZipCode":94728}],
 "EmailAddresses":[{"EmailAddress":"canupeosa@rinreg.tk"}]},
 {"FirstName":"John","LastName":"Rowe","Age":52,
 "Addresses":[{"StreetAddress":"Rebid Terrace","City":"Fefizaja","State":"OR","ZipCode":29800}],
 "EmailAddresses":[{"EmailAddress":"mucgihzun@eszadpi.sj"}]},
 {"FirstName":"Aaron","LastName":"Wilkins","Age":31,
 "Addresses":[{"StreetAddress":"Gusid Center","City":"Siidibiw","State":"IL","ZipCode":17463}],
 "EmailAddresses":[{"EmailAddress":"wepebe@budzubgud.tl"}]},
 {"FirstName":"John","LastName":"Ward","Age":58,
 "Addresses":[{"StreetAddress":"Enar Terrace","City":"Tusiut","State":"KY","ZipCode":91173}],
 "EmailAddresses":[{"EmailAddress":"zuzfohro@cimatoze.ms"}]},
 {"FirstName":"Chad","LastName":"Kennedy","Age":28,
 "Addresses":[{"StreetAddress":"Avuabi Avenue","City":"Hacuzto","State":"ND","ZipCode":23038}],
 "EmailAddresses":[{"EmailAddress":"ralmazde@ci.sg"}]},
 {"FirstName":"Jim","LastName":"Harvey","Age":20,
 "Addresses":[{"StreetAddress":"Ritur Path","City":"Bemekhor","State":"MA","ZipCode":13743}],
 "EmailAddresses":[{"EmailAddress":"decod@ussolap.vu"}]},
 {"FirstName":"Jared","LastName":"Allison","Age":56,
 "Addresses":[{"StreetAddress":"Mazivu Loop","City":"Jozupken","State":"WY","ZipCode":40227}],
 "EmailAddresses":[{"EmailAddress":"morboob@foh.al"}]},
 {"FirstName":"Emily","LastName":"Hampton","Age":37,
 "Addresses":[{"StreetAddress":"Nuliko Manor","City":"Ifuupuumo","State":"ME","ZipCode":32394}],
 "EmailAddresses":[{"EmailAddress":"hudehu@lufoju.kz"}]},
 {"FirstName":"Hester","LastName":"Stanley","Age":21,
 "Addresses":[{"StreetAddress":"Nitce Point","City":"Vabajoz","State":"WY","ZipCode":75379}],
 "EmailAddresses":[{"EmailAddress":"jarnac@lude.ee"}]},
 {"FirstName":"Jerry","LastName":"Garrett","Age":32,
 "Addresses":[{"StreetAddress":"Dafmop View","City":"Inawuvnu","State":"MO","ZipCode":14884}],
 "EmailAddresses":[{"EmailAddress":"tegcim@buswavhe.gov"}]},
 {"FirstName":"Alvin","LastName":"Wise","Age":39,
 "Addresses":[{"StreetAddress":"Vanpif Circle","City":"Popokpu","State":"FL","ZipCode":10570}],
 "EmailAddresses":[{"EmailAddress":"ahadajki@ma.by"}]},
 {"FirstName":"Billy","LastName":"Davidson","Age":22,
 "Addresses":[{"StreetAddress":"Jacoz Highway","City":"Ukuetujaf","State":"AZ","ZipCode":84414}],
 "EmailAddresses":[{"EmailAddress":"vudtubro@na.mx"}]},
 {"FirstName":"Mabel","LastName":"Griffith","Age":18,
 "Addresses":[{"StreetAddress":"Siva Highway","City":"Poloew","State":"IL","ZipCode":74991}],
 "EmailAddresses":[{"EmailAddress":"mor@dobzogela.mo"}]},
 {"FirstName":"Margaret","LastName":"Murphy","Age":35,
 "Addresses":[{"StreetAddress":"Zamwu Highway","City":"Fuhfaboha","State":"MS","ZipCode":70274}],
 "EmailAddresses":[{"EmailAddress":"obe@igbuowi.ar"}]},
 {"FirstName":"Gilbert","LastName":"George","Age":23,
 "Addresses":[{"StreetAddress":"Patha Point","City":"Nipodijo","State":"TX","ZipCode":95117}],
 "EmailAddresses":[{"EmailAddress":"ruc@ke.kh"}]},
 {"FirstName":"Christian","LastName":"Jones","Age":39,
 "Addresses":[{"StreetAddress":"Ofacuk Square","City":"Ezlusco","State":"MO","ZipCode":19104}],
 "EmailAddresses":[{"EmailAddress":"wo@zino.fo"}]},
 {"FirstName":"Norman","LastName":"Roberts","Age":24,
 "Addresses":[{"StreetAddress":"Pihsul Manor","City":"Duggevor","State":"SD","ZipCode":53516}],
 "EmailAddresses":[{"EmailAddress":"vusovut@noha.eu"}]},
 {"FirstName":"Elijah","LastName":"Maldonado","Age":36,
 "Addresses":[{"StreetAddress":"Nuwa Turnpike","City":"Opojouvo","State":"ID","ZipCode":58490}],
 "EmailAddresses":[{"EmailAddress":"wogakcu@cevaruve.pa"}]},
 {"FirstName":"Olive","LastName":"Pena","Age":26,
 "Addresses":[{"StreetAddress":"Nipaj Highway","City":"Upcudat","State":"DC","ZipCode":45973}],
 "EmailAddresses":[{"EmailAddress":"orielu@apavomo.gt"}]},
 {"FirstName":"Willie","LastName":"Stokes","Age":54,
 "Addresses":[{"StreetAddress":"Wajozo Street","City":"Pufuze","State":"ND","ZipCode":46417}],
 "EmailAddresses":[{"EmailAddress":"edupofa@nihfa.bh"}]},
 {"FirstName":"Willie","LastName":"Moss","Age":49,
 "Addresses":[{"StreetAddress":"Imazom Manor","City":"Haggojkul","State":"UT","ZipCode":36028}],
 "EmailAddresses":[{"EmailAddress":"nup@ubbooj.gw"}]},
 {"FirstName":"Roy","LastName":"Marsh","Age":50,
 "Addresses":[{"StreetAddress":"Metbi Avenue","City":"Paldufas","State":"NJ","ZipCode":59100}],
 "EmailAddresses":[{"EmailAddress":"ojezo@tobrag.su"}]},
 {"FirstName":"Stanley","LastName":"Patton","Age":37,
 "Addresses":[{"StreetAddress":"Gefha Center","City":"Aftakki","State":"VA","ZipCode":85314}],
 "EmailAddresses":[{"EmailAddress":"hajkut@gewnitew.gd"}]},
 {"FirstName":"Lily","LastName":"McKinney","Age":32,
 "Addresses":[{"StreetAddress":"Darsar Parkway","City":"Aszioci","State":"AL","ZipCode":86485}],
 "EmailAddresses":[{"EmailAddress":"vutpu@vikih.ni"}]},
 {"FirstName":"Alejandro","LastName":"Strickland","Age":34,
 "Addresses":[{"StreetAddress":"Cuwuz Extension","City":"Wiggerrob","State":"RI","ZipCode":94042}],
 "EmailAddresses":[{"EmailAddress":"pe@rom.bj"}]},
 {"FirstName":"Mittie","LastName":"McCoy","Age":58,
 "Addresses":[{"StreetAddress":"Teftob Grove","City":"Ventazbal","State":"NY","ZipCode":16879}],
 "EmailAddresses":[{"EmailAddress":"retuzo@le.us"}]},
 {"FirstName":"Alexander","LastName":"Nelson","Age":51,
 "Addresses":[{"StreetAddress":"Dukuj River","City":"Imupekuv","State":"MI","ZipCode":91491}],
 "EmailAddresses":[{"EmailAddress":"jijbega@olafab.so"}]},
 {"FirstName":"Luis","LastName":"Reed","Age":49,
 "Addresses":[{"StreetAddress":"Votez Circle","City":"Asbommu","State":"MS","ZipCode":16493}],
 "EmailAddresses":[{"EmailAddress":"devfagu@pecawwul.hm"}]},
 {"FirstName":"Oscar","LastName":"McCoy","Age":34,
 "Addresses":[{"StreetAddress":"Nivkoz Street","City":"Lajetew","State":"HI","ZipCode":20128}],
 "EmailAddresses":[{"EmailAddress":"celod@fakazce.th"}]},
 {"FirstName":"Ronnie","LastName":"Reid","Age":41,
 "Addresses":[{"StreetAddress":"Dirse Terrace","City":"Giaztod","State":"KY","ZipCode":7412}],
 "EmailAddresses":[{"EmailAddress":"kijehse@ikduvo.im"}]},
 {"FirstName":"Gregory","LastName":"Palmer","Age":30,
 "Addresses":[{"StreetAddress":"Omke Road","City":"Galegud","State":"MT","ZipCode":87135}],
 "EmailAddresses":[{"EmailAddress":"gafpehel@nirko.mx"}]},
 {"FirstName":"Norman","LastName":"McLaughlin","Age":41,
 "Addresses":[{"StreetAddress":"Ritde Heights","City":"Asosual","State":"DE","ZipCode":45054}],
 "EmailAddresses":[{"EmailAddress":"valen@sod.bd"}]},
 {"FirstName":"Alejandro","LastName":"Allison","Age":48,
 "Addresses":[{"StreetAddress":"Wopof Street","City":"Suufiuco","State":"IA","ZipCode":7967}],
 "EmailAddresses":[{"EmailAddress":"ga@casoc.il"}]},
 {"FirstName":"Phoebe","LastName":"Christensen","Age":24,
 "Addresses":[{"StreetAddress":"Desu Road","City":"Huegmem","State":"AK","ZipCode":26042}],
 "EmailAddresses":[{"EmailAddress":"kog@juteoc.fj"}]},
 {"FirstName":"Justin","LastName":"Roberts","Age":29
 ,"Addresses":[{"StreetAddress":"Gokpu Turnpike","City":"Hissido","State":"GA","ZipCode":19607}],
 "EmailAddresses":[{"EmailAddress":"ra@acfebav.sd"}]},
 {"FirstName":"Hunter","LastName":"Watts","Age":65,
 "Addresses":[{"StreetAddress":"Hesa Glen","City":"Dathikfa","State":"PA","ZipCode":60233}],
 "EmailAddresses":[{"EmailAddress":"veuje@gadje.fj"}]},
 {"FirstName":"Harvey","LastName":"Love","Age":41,
 "Addresses":[{"StreetAddress":"Lojah Center","City":"Geweve","State":"MO","ZipCode":58150}],
 "EmailAddresses":[{"EmailAddress":"norarzes@jasze.aw"}]},
 {"FirstName":"Katie","LastName":"Boone","Age":28,
 "Addresses":[{"StreetAddress":"Gamwu Key","City":"Fuwicu","State":"AL","ZipCode":5421}],
 "EmailAddresses":[{"EmailAddress":"sad@nimvepet.pk"}]},
 {"FirstName":"Rosie","LastName":"Henderson","Age":24,
 "Addresses":[{"StreetAddress":"Ilvec Pass","City":"Argofa","State":"IA","ZipCode":5959}],
 "EmailAddresses":[{"EmailAddress":"ti@aci.th"}]},
 {"FirstName":"Wesley","LastName":"Fields","Age":60,
 "Addresses":[{"StreetAddress":"Zabdiw Drive","City":"Vasogbop","State":"CO","ZipCode":72674}],
 "EmailAddresses":[{"EmailAddress":"jizgis@zil.ws"}]},
 {"FirstName":"Harry","LastName":"Hines","Age":36,
 "Addresses":[{"StreetAddress":"Davniz Ridge","City":"Tezerti","State":"NM","ZipCode":81703}],
 "EmailAddresses":[{"EmailAddress":"guvizcew@cu.ss"}]},
 {"FirstName":"Christine","LastName":"Garcia","Age":31,
 "Addresses":[{"StreetAddress":"Webu Parkway","City":"Metezuw","State":"MD","ZipCode":67538}],
 "EmailAddresses":[{"EmailAddress":"ziv@tegat.cu"}]},
 {"FirstName":"David","LastName":"Collier","Age":37,
 "Addresses":[{"StreetAddress":"Azeota Way","City":"Rumuvkud","State":"MS","ZipCode":39371}],
 "EmailAddresses":[{"EmailAddress":"imozut@ki.gr"}]},
 {"FirstName":"Rhoda","LastName":"Massey","Age":38,
 "Addresses":[{"StreetAddress":"Gajek Glen","City":"Miihici","State":"OH","ZipCode":37318}],
 "EmailAddresses":[{"EmailAddress":"evoarci@fufap.lk"}]},
 {"FirstName":"Roxie","LastName":"Dawson","Age":32,
 "Addresses":[{"StreetAddress":"Ibmu Square","City":"Pasfivab","State":"TX","ZipCode":85972}],
 "EmailAddresses":[{"EmailAddress":"ewzun@sazi.sy"}]},
 {"FirstName":"Fannie","LastName":"Larson","Age":34,
 "Addresses":[{"StreetAddress":"Fowug Manor","City":"Wonvablo","State":"MT","ZipCode":55206}],
 "EmailAddresses":[{"EmailAddress":"husli@nasheduza.si"}]},
 {"FirstName":"Fanny","LastName":"Wong","Age":37,
 "Addresses":[{"StreetAddress":"Feaci Center","City":"Powcief","State":"IA","ZipCode":44792}],
 "EmailAddresses":[{"EmailAddress":"rov@ike.re"}]},
 {"FirstName":"Evan","LastName":"Murray","Age":42,
 "Addresses":[{"StreetAddress":"Zike Ridge","City":"Zapidor","State":"IL","ZipCode":33450}],
 "EmailAddresses":[{"EmailAddress":"aju@satic.gi"}]},
 {"FirstName":"Georgie","LastName":"Conner","Age":28,
 "Addresses":[{"StreetAddress":"Zure Pike","City":"Zagebe","State":"UT","ZipCode":60521}],
 "EmailAddresses":[{"EmailAddress":"rov@icted.se"}]},
 {"FirstName":"Jeff","LastName":"Bowman","Age":42,
 "Addresses":[{"StreetAddress":"Mirni Path","City":"Eveahbuj","State":"MN","ZipCode":4509}],
 "EmailAddresses":[{"EmailAddress":"uva@pi.iq"}]},
 {"FirstName":"Beatrice","LastName":"Lewis","Age":37,
 "Addresses":[{"StreetAddress":"Vatki Road","City":"Ofatevga","State":"MA","ZipCode":41139}],
 "EmailAddresses":[{"EmailAddress":"tekucohi@wu.ug"}]},
 {"FirstName":"Winnie","LastName":"Holt","Age":64,
 "Addresses":[{"StreetAddress":"Sukdu Pike","City":"Tavwuvej","State":"ME","ZipCode":36862}],
 "EmailAddresses":[{"EmailAddress":"ta@topje.ro"}]},
 {"FirstName":"Carlos","LastName":"Leonard","Age":61,
 "Addresses":[{"StreetAddress":"Jeuc Terrace","City":"Demzove","State":"VA","ZipCode":6223}],
 "EmailAddresses":[{"EmailAddress":"le@uc.lr"}]},
 {"FirstName":"Elmer","LastName":"Lyons","Age":55,
 "Addresses":[{"StreetAddress":"Zartal Trail","City":"Tirevla","State":"VA","ZipCode":11258}],
 "EmailAddresses":[{"EmailAddress":"ajehirasa@ez.dj"}]},
 {"FirstName":"Henrietta","LastName":"Wheeler","Age":63,
 "Addresses":[{"StreetAddress":"Mesu Plaza","City":"Vaosona","State":"NE","ZipCode":36033}],
 "EmailAddresses":[{"EmailAddress":"te@bejca.gh"}]},
 {"FirstName":"Rachel","LastName":"Barber","Age":52,
 "Addresses":[{"StreetAddress":"Poup Lane","City":"Gevadje","State":"NY","ZipCode":86350}],
 "EmailAddresses":[{"EmailAddress":"sapiw@logo.ly"}]},
 {"FirstName":"Callie","LastName":"Diaz","Age":29,
 "Addresses":[{"StreetAddress":"Ukeeh Square","City":"Huklakip","State":"KS","ZipCode":64177}],
 "EmailAddresses":[{"EmailAddress":"ise@sur.cy"}]},
 {"FirstName":"Fanny","LastName":"Webb","Age":48,
 "Addresses":[{"StreetAddress":"Potnum Way","City":"Teberku","State":"HI","ZipCode":32494}],
 "EmailAddresses":[{"EmailAddress":"vejge@fu.kn"}]},
 {"FirstName":"Belle","LastName":"Gill","Age":32,
 "Addresses":[{"StreetAddress":"Amuaz Glen","City":"Uskufap","State":"IL","ZipCode":63434}],
 "EmailAddresses":[{"EmailAddress":"unuac@evgatog.cw"}]},
 {"FirstName":"Jeremiah","LastName":"Gibbs","Age":40,
 "Addresses":[{"StreetAddress":"Gideha View","City":"Tutnetapo","State":"VT","ZipCode":47968}],
 "EmailAddresses":[{"EmailAddress":"lewu@agifago.ec"}]},
 {"FirstName":"Jeff","LastName":"Thornton","Age":29,
 "Addresses":[{"StreetAddress":"Sasav Center","City":"Canitel","State":"AL","ZipCode":14909}],
 "EmailAddresses":[{"EmailAddress":"ravocub@milido.ne"}]},
 {"FirstName":"Rosalie","LastName":"Santiago","Age":38,
 "Addresses":[{"StreetAddress":"Zolak Path","City":"Celkobe","State":"LA","ZipCode":84013}],
 "EmailAddresses":[{"EmailAddress":"cegru@se.lk"}}
]